…
    ## Joining, by = "word"

``` r
news_words %>%
  count(word, sort = TRUE)
```

    ## # A tibble: 121,201 x 2
    ##          word     n
    ##         <chr> <int>
    ##  1     people 10818
    ##  2         ap  7808
    ##  3       sept  7645
    ##  4  president  7107
    ##  5 government  6979
    ##  6     police  6113
    ##  7   migrants  5291
    ##  8   minister  4801
    ##  9     border  4640
    ## 10     united  4609
    ## # ... with 121,191 more rows
…
``` r
country_proportions <- news_words %>%
  group_by(country) %>%
  count(word, sort = TRUE) %>%
  mutate(proportion = n / sum(n)) %>%
  filter(n > 10) %>%
  select(country, word, proportion) %>%
  filter(country != '') %>%
  spread(country, proportion) 
country_proportions
```

    ## # A tibble: 14,743 x 12
    ##          word           AU    CA    EU          GB    IE           IL
    ##  *      <chr>        <dbl> <dbl> <dbl>       <dbl> <dbl>        <dbl>
    ##  1          â           NA    NA    NA          NA    NA           NA
    ##  2        aap 7.960516e-05    NA    NA          NA    NA           NA
    ##  3      aaron 1.459428e-04    NA    NA          NA    NA           NA
    ##  4         ab           NA    NA    NA          NA    NA           NA
    ##  5    abandon           NA    NA    NA          NA    NA           NA
    ##  6  abandoned 7.297140e-05    NA    NA          NA    NA           NA
    ##  7 abandoning           NA    NA    NA          NA    NA           NA
    ##  8     abassi           NA    NA    NA          NA    NA           NA
    ##  9      abbas           NA    NA    NA          NA    NA 0.0002143684
    ## 10     abbott 6.103062e-04    NA    NA 0.000574985    NA           NA
    ## # ... with 14,733 more rows, and 5 more variables: IN <dbl>, MY <dbl>,
    ## #   SG <dbl>, US <dbl>, ZA <dbl>
…
bigram_proportions <- bigrams %>%
  group_by(country) %>%
  count(word, sort = TRUE) %>%
  mutate(proportion = n / sum(n)) %>%
  filter(n > 10) %>%
  select(country, word, proportion) %>%
  filter(country != '') %>%
  spread(country, proportion) 
bigram_proportions
```

    ## # A tibble: 7,600 x 12
    ##                   word           AU    CA    EU    GB    IE    IL    IN
    ##  *               <chr>        <dbl> <dbl> <dbl> <dbl> <dbl> <dbl> <dbl>
    ##  1       aaron rodgers           NA    NA    NA    NA    NA    NA    NA
    ##  2          abc action 0.0002763661    NA    NA    NA    NA    NA    NA
    ##  3            abc news           NA    NA    NA    NA    NA    NA    NA
    ##  4 abdelfattah elsissi           NA    NA    NA    NA    NA    NA    NA
    ##  5    abdrabbu mansour           NA    NA    NA    NA    NA    NA    NA
    ##  6   abduction slaying           NA    NA    NA    NA    NA    NA    NA
    ##  7        abdul gayoom           NA    NA    NA    NA    NA    NA    NA
    ##  8        abdul rahman           NA    NA    NA    NA    NA    NA    NA
    ##  9         abdullah ii           NA    NA    NA    NA    NA    NA    NA
    ## 10      abdullah saleh           NA    NA    NA    NA    NA    NA    NA
    ## # ... with 7,590 more rows, and 4 more variables: MY <dbl>, SG <dbl>,
    ## #   US <dbl>, ZA <dbl>
…
Word Document Frequency tf-idf
------------------------------

When we look at the bigrams it is clear that we pick up many of phrases we don't care about. Term frequency inverse document frequency (tf-idf) is an easy way to find important phrases. It is calculated by scaling the frequency of a term within a document by a measure of how rare it is. The measure of rarity, inverse document frequency, is the log of inverse of the proportion of documents containing the term.

``` r
bigrams <- bigrams %>%
  count(id, word) %>%
  bind_tf_idf(word, id, n) %>%
  arrange(desc(tf_idf))
bigrams
```

    ## # A tibble: 836,334 x 6
    ##       id                 word     n    tf      idf   tf_idf
    ##    <int>                <chr> <int> <dbl>    <dbl>    <dbl>
    ##  1  1372       moroccan woman     1     1 9.198369 9.198369
    ##  2  4552   disabled transform     1     1 9.198369 9.198369
    ##  3  6198          blast music     1     1 9.198369 9.198369
    ##  4  6220        watch kaparos     1     1 9.198369 9.198369
    ##  5  7208   distressing images     1     1 9.198369 9.198369
    ##  6  7538 production companies     1     1 8.505222 8.505222
    ##  7  6075  federal regulations     1     1 8.099757 8.099757
    ##  8  9136         limited time     1     1 7.588931 7.588931
    ##  9  1227         flash floods     1     1 7.406610 7.406610
    ## 10  7817        german brands     1     1 7.406610 7.406610
    ## # ... with 836,324 more rows
…
    ## The following object is masked from 'package:base':
    ## 
    ##     union

``` r
bigram_counts <- bigrams %>%
  group_by(word) %>%
  summarise(n = sum(n)) %>%
  separate(word, c("word1", "word2"), sep = " ")
bigram_counts
```

    ## # A tibble: 434,854 x 3
    ##    word1        word2     n
    ##  * <chr>        <chr> <int>
    ##  1     â         days     1
    ##  2     â        euros     1
    ##  3     â milesclashes     1
    ##  4     â      million     3
    ##  5     à          nos     1
    ##  6     â       people     1
    ##  7     â    yearcivil     1
    ##  8   aaa midatlantics     1
    ##  9   aaa northeastnew     1
    ## 10   aaa       rating     1
    ## # ... with 434,844 more rows
…
To estimate the topics using LDA, we'll use the `topicmodels` package.

``` r
library(topicmodels)
news_lda <- LDA(news_dtm, k = 2, control = list(seed = 1337))
news_topics <- tidy(news_lda, matrix = "beta")
news_topics
```

    ## # A tibble: 242,402 x 3
    ##    topic      term         beta
    ##    <int>     <chr>        <dbl>
    ##  1     1 acclaimed 4.973762e-06
    ##  2     2 acclaimed 9.145090e-06
    ##  3     1     added 5.393060e-04
    ##  4     2     added 5.602238e-04
    ##  5     1 admission 2.519615e-05
    ##  6     2 admission 4.066899e-05
    ##  7     1  admitted 5.724267e-05
    ##  8     2  admitted 2.435764e-04
    ##  9     1 admitting 1.765649e-05
    ## 10     2 admitting 3.506438e-05
    ## # ... with 242,392 more rows
…
More interesting than the top terms in each topic are the terms with the greatest difference in probability of allocation to a given topic.

``` r
beta_spread <- news_topics %>%
  mutate(topic = paste0("topic", topic)) %>%
  spread(topic, beta) %>%
  filter(topic1 > .001 | topic2 > .001) %>%
  mutate(log_ratio = log2(topic2 / topic1))
beta_spread
```

    ## # A tibble: 138 x 4
    ##           term      topic1       topic2  log_ratio
    ##          <chr>       <dbl>        <dbl>      <dbl>
    ##  1      agency 0.001108124 5.471807e-04  -1.018030
    ##  2         air 0.001175456 4.280401e-04  -1.457403
    ##  3          ap 0.005371211 1.946124e-03  -1.464643
    ##  4        army 0.001080544 4.394810e-05  -4.619813
    ##  5       assad 0.001047378 1.855861e-13 -32.393974
    ##  6    assembly 0.001035374 4.805503e-05  -4.429320
    ##  7      asylum 0.001426943 7.127627e-07 -10.967219
    ##  8      attack 0.001169008 1.850637e-04  -2.659191
    ##  9     austria 0.001007401 5.469313e-06  -7.525063
    ## 10 authorities 0.001401486 5.944507e-04  -1.237328
    ## # ... with 128 more rows
…
